^C:\USERS\COREY\SOURCE\REPOS\CTZ.PLAYINGCARDASSIGNMENT\CTZ.PLAYINGCARDASSIGNMENT\DEBUG\MAIN.OBJ
C:\USERS\COREY\SOURCE\REPOS\CTZ.PLAYINGCARDASSIGNMENT\DEBUG\CTZ.PLAYINGCARDASSIGNMENT.EXE
C:\USERS\COREY\SOURCE\REPOS\CTZ.PLAYINGCARDASSIGNMENT\CTZ.PLAYINGCARDASSIGNMENT\DEBUG\CTZ.PLAYINGCARDASSIGNMENT.ILK
C:\USERS\COREY\SOURCE\REPOS\CTZ.PLAYINGCARDASSIGNMENT\DEBUG\CTZ.PLAYINGCARDASSIGNMENT.PDB
